C:\Users\formation\Desktop\ProjetCDA\AppArchives-IDAO\src\main\java\fr\eql\ai110\apparchives\idao\FileIDao.java
C:\Users\formation\Desktop\ProjetCDA\AppArchives-IDAO\src\main\java\fr\eql\ai110\apparchives\idao\GenericIDao.java
C:\Users\formation\Desktop\ProjetCDA\AppArchives-IDAO\src\main\java\fr\eql\ai110\apparchives\idao\UserIDao.java
C:\Users\formation\Desktop\ProjetCDA\AppArchives-IDAO\src\main\java\fr\eql\ai110\apparchives\idao\ArchiveIDao.java
C:\Users\formation\Desktop\ProjetCDA\AppArchives-IDAO\src\main\java\fr\eql\ai110\apparchives\idao\ReservationIDao.java
