C:\Users\formation\Desktop\ProjetCDA\AppArchives-BUSINESS\src\main\java\fr\eql\ai110\apparchives\business\AccountBusiness.java
C:\Users\formation\Desktop\ProjetCDA\AppArchives-BUSINESS\src\main\java\fr\eql\ai110\apparchives\business\ArchiveBusiness.java
C:\Users\formation\Desktop\ProjetCDA\AppArchives-BUSINESS\src\main\java\fr\eql\ai110\apparchives\business\ReservationBusiness.java
C:\Users\formation\Desktop\ProjetCDA\AppArchives-BUSINESS\src\main\java\fr\eql\ai110\apparchives\business\FileBusiness.java
